<?xml version="1.0" encoding="UTF-8" standalone="no"?>
<!-- Created with Inkscape (http://www.inkscape.org/) -->

<svg
   width="144.22815mm"
   height="13.41795mm"
   viewBox="0 0 144.22815 13.41795"
   version="1.1"
   id="svg5"
   inkscape:version="1.1 (c68e22c387, 2021-05-23)"
   sodipodi:docname="drawing.svg"
   xmlns:inkscape="http://www.inkscape.org/namespaces/inkscape"
   xmlns:sodipodi="http://sodipodi.sourceforge.net/DTD/sodipodi-0.dtd"
   xmlns="http://www.w3.org/2000/svg"
   xmlns:svg="http://www.w3.org/2000/svg">
  <sodipodi:namedview
     id="namedview7"
     pagecolor="#ffffff"
     bordercolor="#666666"
     borderopacity="1.0"
     inkscape:pageshadow="2"
     inkscape:pageopacity="0.0"
     inkscape:pagecheckerboard="0"
     inkscape:document-units="mm"
     showgrid="false"
     fit-margin-top="0"
     fit-margin-left="0"
     fit-margin-right="0"
     fit-margin-bottom="0"
     inkscape:zoom="1.0858184"
     inkscape:cx="195.24443"
     inkscape:cy="69.072323"
     inkscape:window-width="1366"
     inkscape:window-height="699"
     inkscape:window-x="0"
     inkscape:window-y="32"
     inkscape:window-maximized="1"
     inkscape:current-layer="layer1" />
  <defs
     id="defs2">
    <rect
       x="61.595997"
       y="215.10809"
       width="1532.4362"
       height="385.52927"
       id="rect4773" />
    <rect
       x="121.95866"
       y="261.10281"
       width="640.19183"
       height="247.13757"
       id="rect1947" />
  </defs>
  <g
     inkscape:label="Layer 1"
     inkscape:groupmode="layer"
     id="layer1"
     transform="translate(-15.820395,-59.267147)">
    <text
       xml:space="preserve"
       transform="scale(0.26458333)"
       id="text1945"
       style="font-size:80px;line-height:1.25;font-family:'Liberation Sans';-inkscape-font-specification:'Liberation Sans';white-space:pre;shape-inside:url(#rect1947)" />
    <text
       xml:space="preserve"
       style="font-size:21.1667px;line-height:1.25;font-family:'Liberation Sans';-inkscape-font-specification:'Liberation Sans';stroke-width:0.264583"
       x="149.25351"
       y="106.34893"
       id="text2745"><tspan
         sodipodi:role="line"
         id="tspan2743"
         style="stroke-width:0.264583"
         x="149.25351"
         y="106.34893" /></text>
    <text
       xml:space="preserve"
       transform="scale(0.26458333)"
       id="text4771"
       style="font-size:53.3333px;line-height:1.25;font-family:'Liberation Sans';-inkscape-font-specification:'Liberation Sans';white-space:pre;shape-inside:url(#rect4773);fill:#ff0000;stroke:#ff0000"><tspan
         x="61.595703"
         y="263.14763"
         id="tspan11086">join@mail.nixphere.org</tspan></text>
  </g>
</svg>
